[
  {
    "chinese": "丢弃;放弃，抛弃",
    "english": "abandon",
    "id": 1,
    "input": "",
    "status": ""
  },
  {
    "chinese": "绝对的;纯粹的",
    "english": "absolute",
    "id": 2,
    "input": "",
    "status": ""
  },
  {
    "chinese": "吸收;使专心",
    "english": "absorb",
    "id": 3,
    "input": "",
    "status": ""
  },
  {
    "chinese": "摘要",
    "english": "abstract",
    "id": 4,
    "input": "",
    "status": ""
  },
  {
    "chinese": "丰富的;大量的",
    "english": "abundant",
    "id": 5,
    "input": "",
    "status": ""
  },
  {
    "chinese": "vt.滥用;虐待n.滥用",
    "english": "abuse",
    "id": 6,
    "input": "",
    "status": ""
  },
  {
    "chinese": "a.学院的;学术的",
    "english": "academic",
    "id": 7,
    "input": "",
    "status": ""
  },
  {
    "chinese": "vt.(使)加快;促进",
    "english": "accelerate",
    "id": 8,
    "input": "",
    "status": ""
  },
  {
    "chinese": "n.接近;通道，入口",
    "english": "access",
    "id": 9,
    "input": "",
    "status": ""
  },
  {
    "chinese": "vt.陪伴，陪同;伴随",
    "english": "accompany",
    "id": 10,
    "input": "",
    "status": ""
  },
  {
    "chinese": "vt.达到(目的);完成",
    "english": "accomplish",
    "id": 11,
    "input": "",
    "status": ""
  },
  {
    "chinese": "一致;和谐;授予",
    "english": "accordance",
    "id": 12,
    "input": "",
    "status": ""
  },
  {
    "chinese": "认识;了解;熟人",
    "english": "acquaintance",
    "id": 13,
    "input": "",
    "status": ""
  },
  {
    "chinese": "n.允许进入;承认",
    "english": "admission",
    "id": 14,
    "input": "",
    "status": ""
  }
]